<?xml version="1.0" encoding="utf-8"?>
<!-- Generator: Adobe Illustrator 19.2.0, SVG Export Plug-In . SVG Version: 6.00 Build 0)  -->
<svg version="1.1" id="Layer_1" xmlns="http://www.w3.org/2000/svg" xmlns:xlink="http://www.w3.org/1999/xlink" x="0px" y="0px"
	 viewBox="0 0 77 45.5" style="enable-background:new 0 0 77 45.5;" xml:space="preserve">
<style type="text/css">
	.st0{fill:url(#XMLID_2_);}
	.st1{fill:url(#XMLID_3_);}
	.st2{fill:url(#XMLID_4_);}
	.st3{fill:url(#XMLID_5_);}
	.st4{fill:url(#XMLID_6_);}
	.st5{fill:url(#XMLID_7_);}
</style>
<g id="XMLID_110_">
	<linearGradient id="XMLID_2_" gradientUnits="userSpaceOnUse" x1="17.3827" y1="36.7605" x2="59.4901" y2="36.7605">
		<stop  offset="0" style="stop-color:#C725AD"/>
		<stop  offset="0.1132" style="stop-color:#BE24A9"/>
		<stop  offset="0.3016" style="stop-color:#A4229E"/>
		<stop  offset="0.5418" style="stop-color:#7B1D8D"/>
		<stop  offset="0.8216" style="stop-color:#421874"/>
		<stop  offset="0.9944" style="stop-color:#1B1464"/>
	</linearGradient>
	<path id="XMLID_163_" class="st0" d="M17.4,45.5c0-2.5-0.1-5,0-7.3c0.1-2.5,1.8-4,3.7-5.3c3.4-2.3,7.3-3.4,11.3-4.2
		c7.1-1.4,13.8-0.2,20.3,2.6c1.5,0.7,2.9,1.6,4.1,2.6c1.7,1.3,2.6,3.2,2.5,5.4c-0.1,2,0,4,0,6.2C45.5,45.5,31.5,45.5,17.4,45.5z"/>
	<linearGradient id="XMLID_3_" gradientUnits="userSpaceOnUse" x1="27.9273" y1="10.5113" x2="48.947" y2="10.5113">
		<stop  offset="0" style="stop-color:#C725AD"/>
		<stop  offset="0.1132" style="stop-color:#BE24A9"/>
		<stop  offset="0.3016" style="stop-color:#A4229E"/>
		<stop  offset="0.5418" style="stop-color:#7B1D8D"/>
		<stop  offset="0.8216" style="stop-color:#421874"/>
		<stop  offset="0.9944" style="stop-color:#1B1464"/>
	</linearGradient>
	<path id="XMLID_162_" class="st1" d="M38.5,0C44.3,0,49,4.8,48.9,10.6c0,5.8-4.8,10.5-10.7,10.4c-5.7-0.1-10.4-4.8-10.4-10.5
		C27.9,4.7,32.7,0,38.5,0z"/>
	<linearGradient id="XMLID_4_" gradientUnits="userSpaceOnUse" x1="8.6476" y1="16.3544" x2="24.6589" y2="16.3544">
		<stop  offset="0" style="stop-color:#C725AD"/>
		<stop  offset="0.1132" style="stop-color:#BE24A9"/>
		<stop  offset="0.3016" style="stop-color:#A4229E"/>
		<stop  offset="0.5418" style="stop-color:#7B1D8D"/>
		<stop  offset="0.8216" style="stop-color:#421874"/>
		<stop  offset="0.9944" style="stop-color:#1B1464"/>
	</linearGradient>
	<path id="XMLID_161_" class="st2" d="M24.7,21.1c-2.4,3.9-7.3,5.2-11.3,3.1c-4.1-2.1-5.8-7-4-11.2c1.8-4.1,6.5-6.3,10.6-4.9
		c0.4,0.1,1,0.8,1,1.1C20.7,13.6,22,17.6,24.7,21.1z"/>
	<linearGradient id="XMLID_5_" gradientUnits="userSpaceOnUse" x1="52.1548" y1="16.3423" x2="68.289" y2="16.3423">
		<stop  offset="0" style="stop-color:#C725AD"/>
		<stop  offset="0.1132" style="stop-color:#BE24A9"/>
		<stop  offset="0.3016" style="stop-color:#A4229E"/>
		<stop  offset="0.5418" style="stop-color:#7B1D8D"/>
		<stop  offset="0.8216" style="stop-color:#421874"/>
		<stop  offset="0.9944" style="stop-color:#1B1464"/>
	</linearGradient>
	<path id="XMLID_160_" class="st3" d="M52.2,21.1c2.7-3.6,4-7.5,3.8-12c0-0.4,0.7-1.1,1.1-1.2c3.6-1,6.6,0,9,2.7
		c2.4,2.9,2.8,6.1,1.2,9.5c-1.6,3.3-4.4,4.9-8.1,4.9C56.2,25,53.9,23.6,52.2,21.1z"/>
	<linearGradient id="XMLID_6_" gradientUnits="userSpaceOnUse" x1="64.0127" y1="38.4639" x2="77.0088" y2="38.4639">
		<stop  offset="0" style="stop-color:#C725AD"/>
		<stop  offset="0.1132" style="stop-color:#BE24A9"/>
		<stop  offset="0.3016" style="stop-color:#A4229E"/>
		<stop  offset="0.5418" style="stop-color:#7B1D8D"/>
		<stop  offset="0.8216" style="stop-color:#421874"/>
		<stop  offset="0.9944" style="stop-color:#1B1464"/>
	</linearGradient>
	<path id="XMLID_159_" class="st4" d="M77,45.5c-3.5,0-6.9,0-10.4,0c-0.5-4.7,0.9-9.6-2.5-14.1c4.6,0.9,8.6,1.9,11.6,5.1
		c0.8,0.8,1.2,2.1,1.3,3.2C77.1,41.6,77,43.5,77,45.5z"/>
	<linearGradient id="XMLID_7_" gradientUnits="userSpaceOnUse" x1="9.094947e-013" y1="38.492" x2="12.7723" y2="38.492">
		<stop  offset="0" style="stop-color:#C725AD"/>
		<stop  offset="0.1132" style="stop-color:#BE24A9"/>
		<stop  offset="0.3016" style="stop-color:#A4229E"/>
		<stop  offset="0.5418" style="stop-color:#7B1D8D"/>
		<stop  offset="0.8216" style="stop-color:#421874"/>
		<stop  offset="0.9944" style="stop-color:#1B1464"/>
	</linearGradient>
	<path id="XMLID_158_" class="st5" d="M10.3,45.5c-3.5,0-6.8,0-10.3,0c0-2.4-0.2-4.7,0.1-7c0.1-1,1.1-2.1,2-2.9
		c2.9-2.4,6.5-3.4,10.6-4.2C9.5,35.9,10.7,40.8,10.3,45.5z"/>
</g>
</svg>
